<?xml version="1.0" encoding="UTF-8"?>
<svg width="20px" height="20px" viewBox="0 0 20 20" version="1.1" xmlns="http://www.w3.org/2000/svg" xmlns:xlink="http://www.w3.org/1999/xlink">
    <!-- Generator: Sketch 62 (91390) - https://sketch.com -->
    <title>open-icon</title>
    <desc>Created with Sketch.</desc>
    <g id="open-icon" stroke="none" stroke-width="1" fill="none" fill-rule="evenodd">
        <g transform="translate(10.000000, 9.500000) rotate(-90.000000) translate(-10.000000, -9.500000) translate(6.500000, 2.500000)" fill="#C2C2C2" fill-rule="nonzero" id="back-icon-android">
            <g>
                <path d="M6.70630248,-0.325157639 C6.98359431,-0.0703930276 7.0254044,0.344873722 6.8201653,0.647438075 L6.75117053,0.734553104 L1.441,6.514 L6.76171578,12.5546753 C7.03548259,12.8655203 7.00542479,13.3394418 6.69457979,13.6132086 C6.41199344,13.8620875 5.9946331,13.8598717 5.71539978,13.6238695 L5.63604649,13.5460726 L0.0680588992,7.22397291 C-0.00684640608,7.13892265 -0.0590066808,7.0416641 -0.0888938026,6.93963734 L-0.0274463229,7.0040138 C-0.30473815,6.74924919 -0.346548241,6.33398244 -0.141309142,6.03141809 L-0.0723143693,5.94430306 L5.64659174,-0.280289592 C5.92683281,-0.585310602 6.40128147,-0.605398711 6.70630248,-0.325157639 Z" id="Combined-Shape"></path>
            </g>
        </g>
    </g>
</svg>