<?xml version="1.0" encoding="UTF-8"?>
<svg width="17px" height="16px" viewBox="0 0 17 16" version="1.1" xmlns="http://www.w3.org/2000/svg" xmlns:xlink="http://www.w3.org/1999/xlink">
    <!-- Generator: Sketch 61 (89581) - https://sketch.com -->
    <title>tab-heart-outline</title>
    <desc>Created with Sketch.</desc>
    <g id="Symbols" stroke="none" stroke-width="1" fill="none" fill-rule="evenodd">
        <g id="tab-heart-outline-copy" transform="translate(-1.000000, -1.000000)" fill="#B42525">
            <path d="M13.4051739,1 C12.2657484,1.00072334 11.1677306,1.46582805 10.3252982,2.30417387 C10.0047455,2.62099481 9.72702839,2.98555589 9.5,3.38700709 C9.27225769,2.98555589 8.99454057,2.62099481 8.67470183,2.30345054 C7.83155552,1.46582805 6.73353771,1.00072334 5.59482614,1 C3.06110365,1 1,3.25463669 1,6.02645826 C1,7.89700381 1.53187469,9.37333152 2.77838905,10.9639462 C4.58961868,13.2764498 9.17373593,16.8048803 9.36792374,16.9538874 C9.44716949,17.0153709 9.55283051,17.0153709 9.63136234,16.9538874 C9.82626407,16.8048803 14.4096674,13.2764498 16.221611,10.9639462 C17.4674114,9.37333152 18,7.89700381 18,6.02645826 C18,3.25463669 15.9381824,1 13.4051739,1 Z" id="tab-heart-outline"></path>
        </g>
    </g>
</svg>