<?xml version="1.0" encoding="UTF-8"?>
<svg width="15px" height="15px" viewBox="0 0 15 15" version="1.1" xmlns="http://www.w3.org/2000/svg" xmlns:xlink="http://www.w3.org/1999/xlink">
    <!-- Generator: Sketch 62 (91390) - https://sketch.com -->
    <title>icon--video-zoomout</title>
    <desc>Created with Sketch.</desc>
    <g id="Symbols" stroke="none" stroke-width="1" fill="none" fill-rule="evenodd" opacity="0.9">
        <g id="Artboard" transform="translate(-3.000000, -3.000000)" fill="#FFFFFF">
            <path d="M10.3730469,12.0625 C10.3730469,12.140625 10.3339844,12.2285156 10.2753906,12.2871094 L7.03320312,15.5292969 L8.43945312,16.9355469 C8.55664062,17.0527344 8.625,17.2089844 8.625,17.375 C8.625,17.7167969 8.34179688,18 8,18 L3.625,18 C3.28320312,18 3,17.7167969 3,17.375 L3,13 C3,12.6582031 3.28320312,12.375 3.625,12.375 C3.79101562,12.375 3.94726562,12.4433594 4.06445312,12.5605469 L5.47070312,13.9667969 L8.71289062,10.7246094 C8.77148438,10.6660156 8.859375,10.6269531 8.9375,10.6269531 C9.015625,10.6269531 9.10351562,10.6660156 9.16210938,10.7246094 L10.2753906,11.8378906 C10.3339844,11.8964844 10.3730469,11.984375 10.3730469,12.0625 Z M18,3.625 L18,8 C18,8.34179688 17.7167969,8.625 17.375,8.625 C17.2089844,8.625 17.0527344,8.55664062 16.9355469,8.43945312 L15.5292969,7.03320312 L12.2871094,10.2753906 C12.2285156,10.3339844 12.140625,10.3730469 12.0625,10.3730469 C11.984375,10.3730469 11.8964844,10.3339844 11.8378906,10.2753906 L10.7246094,9.16210938 C10.6660156,9.10351562 10.6269531,9.015625 10.6269531,8.9375 C10.6269531,8.859375 10.6660156,8.77148438 10.7246094,8.71289062 L13.9667969,5.47070312 L12.5605469,4.06445312 C12.4433594,3.94726562 12.375,3.79101562 12.375,3.625 C12.375,3.28320312 12.6582031,3 13,3 L17.375,3 C17.7167969,3 18,3.28320312 18,3.625 Z" id="icon--video-zoomout"></path>
        </g>
    </g>
</svg>