<?xml version="1.0" encoding="UTF-8"?>
<svg width="20px" height="18px" viewBox="0 0 20 18" version="1.1" xmlns="http://www.w3.org/2000/svg" xmlns:xlink="http://www.w3.org/1999/xlink">
    <!-- Generator: Sketch 61 (89581) - https://sketch.com -->
    <title>nomoasic-tag</title>
    <desc>Created with Sketch.</desc>
    <g id="nomoasic-tag" stroke="none" stroke-width="1" fill="none" fill-rule="evenodd">
        <g fill="#A18B59" fill-rule="nonzero">
            <path d="M10,0.5 C5.30557963,0.5 1.5,4.30557963 1.5,9 C1.5,13.6944204 5.30557963,17.5 10,17.5 C14.6944204,17.5 18.5,13.6944204 18.5,9 C18.5,4.30557963 14.6944204,0.5 10,0.5 Z M10,1.5 C14.1421356,1.5 17.5,4.85786438 17.5,9 C17.5,13.1421356 14.1421356,16.5 10,16.5 C5.85786438,16.5 2.5,13.1421356 2.5,9 C2.5,4.85786438 5.85786438,1.5 10,1.5 Z" id="Oval"></path>
            <path d="M6.409,12.927 C7.651,12.396 8.551,11.64 9.109,10.659 C9.406,10.092 9.631,9.426 9.793,8.652 L10.351,8.652 L10.351,11.721 C10.351,12.423 10.684,12.783 11.35,12.783 L12.79,12.783 C13.168,12.783 13.447,12.693 13.627,12.522 C13.825,12.342 13.969,11.775 14.041,10.83 L13.24,10.569 C13.204,11.253 13.132,11.667 13.033,11.793 C12.943,11.919 12.808,11.982 12.628,11.982 L11.611,11.982 C11.332,11.982 11.197,11.829 11.197,11.541 L11.197,8.652 L13.915,8.652 L13.915,7.824 L9.928,7.824 C9.982,7.374 10.018,6.906 10.036,6.402 L10.036,5.862 L13.204,5.862 L13.204,5.025 L6.652,5.025 L6.652,5.862 L9.163,5.862 L9.163,6.402 C9.145,6.906 9.109,7.374 9.055,7.824 L6.067,7.824 L6.067,8.652 L8.902,8.652 C8.794,9.147 8.641,9.597 8.452,10.011 C8.011,10.875 7.174,11.595 5.932,12.162 L6.409,12.927 Z" id="无"></path>
        </g>
    </g>
</svg>